<svg xmlns="http://www.w3.org/2000/svg" width="191" height="127" viewBox="0 0 191 127">
  <g id="Groupe_1" data-name="Groupe 1" transform="translate(-119 -181)">
    <g id="Rectangle_1" data-name="Rectangle 1" transform="translate(119 181)" fill="none" stroke="#001529" stroke-width="2">
      <rect width="55" height="21" rx="10" stroke="none"/>
      <rect x="1" y="1" width="53" height="19" rx="9" fill="none"/>
    </g>
    <g id="Rectangle_2" data-name="Rectangle 2" transform="translate(187 181)" fill="none" stroke="#001529" stroke-width="2">
      <rect width="55" height="21" rx="10" stroke="none"/>
      <rect x="1" y="1" width="53" height="19" rx="9" fill="none"/>
    </g>
    <g id="Rectangle_3" data-name="Rectangle 3" transform="translate(255 181)" fill="none" stroke="#001529" stroke-width="2">
      <rect width="55" height="21" rx="10" stroke="none"/>
      <rect x="1" y="1" width="53" height="19" rx="9" fill="none"/>
    </g>
    <g id="Rectangle_4" data-name="Rectangle 4" transform="translate(119 210)" fill="none" stroke="#001529" stroke-width="2">
      <rect width="55" height="45" rx="10" stroke="none"/>
      <rect x="1" y="1" width="53" height="43" rx="9" fill="none"/>
    </g>
    <g id="Rectangle_5" data-name="Rectangle 5" transform="translate(187 210)" fill="none" stroke="#001529" stroke-width="2">
      <rect width="55" height="45" rx="10" stroke="none"/>
      <rect x="1" y="1" width="53" height="43" rx="9" fill="none"/>
    </g>
    <g id="Rectangle_6" data-name="Rectangle 6" transform="translate(255 210)" fill="none" stroke="#001529" stroke-width="2">
      <rect width="55" height="45" rx="10" stroke="none"/>
      <rect x="1" y="1" width="53" height="43" rx="9" fill="none"/>
    </g>
    <g id="Rectangle_7" data-name="Rectangle 7" transform="translate(119 263)" fill="none" stroke="#001529" stroke-width="2">
      <rect width="55" height="45" rx="10" stroke="none"/>
      <rect x="1" y="1" width="53" height="43" rx="9" fill="none"/>
    </g>
    <g id="Rectangle_8" data-name="Rectangle 8" transform="translate(187 263)" fill="none" stroke="#001529" stroke-width="2">
      <rect width="55" height="45" rx="10" stroke="none"/>
      <rect x="1" y="1" width="53" height="43" rx="9" fill="none"/>
    </g>
    <g id="Rectangle_9" data-name="Rectangle 9" transform="translate(255 263)" fill="none" stroke="#001529" stroke-width="2">
      <rect width="55" height="45" rx="10" stroke="none"/>
      <rect x="1" y="1" width="53" height="43" rx="9" fill="none"/>
    </g>
  </g>
</svg>
